<svg xmlns="http://www.w3.org/2000/svg" width="228.063" height="23.906" viewBox="0 0 228.063 23.906">
<defs>
    <style>
      .cls-1 {
        fill: #fff;
      }
    </style>
  </defs>
  <path class="cls-1" d="M15.87,19.1V6.129h0.937c1.9,0,7.929-.058,7.929,6.469,0,5.876-4.744,6.5-7.929,6.5H15.87Zm-3.252,5.06H15.87v-2.49h1.348C20.3,21.672,28.2,20.76,28.2,12.6c0-7.67-6.785-9.042-10.977-9.042H15.87V1.222H12.619V3.556H11.267C0.811,3.556.293,10.771,0.293,12.6c0,8.684,8.9,9.074,10.974,9.074h1.352v2.49Zm0-5.06h-0.9c-7.86,0-7.962-4.773-7.962-6.5,0-1.632.1-6.469,7.962-6.469h0.9V19.1ZM31,24.07l2.054-6.4h8.667l2.055,6.4h3.2L39.334,1.161H35.619L27.977,24.07H31Zm2.9-9.021,3.482-10.77,3.5,10.77H33.9ZM62.74,4.817a6.251,6.251,0,0,0-1.984-2.226,7.3,7.3,0,0,0-2.5-1.091,15.006,15.006,0,0,0-3.435-.34H49.109V24.07h3.034V15.538h2.562a11.487,11.487,0,0,0,4.01-.6,7.761,7.761,0,0,0,2.759-1.771A6.648,6.648,0,0,0,62.931,10.9a7.588,7.588,0,0,0,.526-2.824A6.844,6.844,0,0,0,62.74,4.817Zm-2.729,5.228a4.323,4.323,0,0,1-.977,1.5,3.942,3.942,0,0,1-1.875,1.065,11.755,11.755,0,0,1-2.958.3H52.143V3.787h2.5a11.914,11.914,0,0,1,2.372.2,4.873,4.873,0,0,1,1.671.676,3.442,3.442,0,0,1,1.228,1.428,4.894,4.894,0,0,1,.4,2.053A5.436,5.436,0,0,1,60.011,10.046ZM66.3,1.161h2.814V19.3L78.262,1.161h4.281V24.07H79.728V4.316L69.682,24.07H66.3V1.161ZM103.628,24.07H100.6V12.861H90.147V24.07H87.116V1.161h3.031v8.965H100.6V1.161h3.033V24.07ZM121.384,3.895H111.206V24.07h-3.031V1.161h13.209V3.895Zm14.073-2.408a10.2,10.2,0,0,0-4.166-.819,10.338,10.338,0,0,0-4.129.795,8.533,8.533,0,0,0-3.156,2.318,11.082,11.082,0,0,0-2.015,3.757,16.472,16.472,0,0,0-.71,5.084,16.837,16.837,0,0,0,.7,5.051,10.558,10.558,0,0,0,2.008,3.761,8.494,8.494,0,0,0,3.163,2.342,10.458,10.458,0,0,0,4.139.784,10.6,10.6,0,0,0,4.067-.76,8.56,8.56,0,0,0,3.233-2.366,10.447,10.447,0,0,0,2.026-3.774,17,17,0,0,0,.7-5.038,16.7,16.7,0,0,0-.717-5.1,10.659,10.659,0,0,0-2.007-3.742A8.714,8.714,0,0,0,135.457,1.487Zm0.855,18.05a6.428,6.428,0,0,1-10.019,0q-1.872-2.394-1.87-6.914a15.317,15.317,0,0,1,.479-4.008,8.371,8.371,0,0,1,1.374-2.946,5.93,5.93,0,0,1,2.167-1.794,7.24,7.24,0,0,1,5.71.014,5.715,5.715,0,0,1,2.167,1.78,8.506,8.506,0,0,1,1.367,2.914,15.149,15.149,0,0,1,.487,4.04Q138.174,17.137,136.312,19.536Zm17.161,5.024a10.776,10.776,0,0,1-4.077-.754,8.654,8.654,0,0,1-3.21-2.252,10.321,10.321,0,0,1-2.1-3.728,16.152,16.152,0,0,1-.746-5.133,15.8,15.8,0,0,1,.722-5.028,10.872,10.872,0,0,1,2.1-3.726,8.955,8.955,0,0,1,3.205-2.353,10.266,10.266,0,0,1,4.143-.81,12.758,12.758,0,0,1,2.136.172,14.8,14.8,0,0,1,1.846.43,13.134,13.134,0,0,1,1.494.58c0.513,0.233,1.014.485,1.511,0.763V6.408h-0.241c-0.263-.242-0.6-0.54-1.017-0.887a10.078,10.078,0,0,0-1.517-1.028,9.445,9.445,0,0,0-1.885-.783A8.107,8.107,0,0,0,153.5,3.4a6.406,6.406,0,0,0-2.731.6A6.476,6.476,0,0,0,148.5,5.776a8.394,8.394,0,0,0-1.486,2.941,13.829,13.829,0,0,0-.531,3.988,13.021,13.021,0,0,0,.56,4.062,8.714,8.714,0,0,0,1.534,2.872,6.125,6.125,0,0,0,2.215,1.719,6.458,6.458,0,0,0,2.7.578,8.6,8.6,0,0,0,2.412-.321,9.271,9.271,0,0,0,1.972-.81,10.126,10.126,0,0,0,1.444-.973c0.4-.331.724-0.614,0.956-0.849h0.226V22.6q-0.745.352-1.4,0.672a12.761,12.761,0,0,1-1.6.629,17.107,17.107,0,0,1-1.832.489A11.45,11.45,0,0,1,153.473,24.56Zm9.845-.49V1.161H177.5V3.895H166.35v6.231h10.394v2.735H166.35v8.474H177.5V24.07H163.318Zm34.007,0h-3.032V3.895H183.845V24.07h-3.033V1.161h16.513V24.07Zm9.851,0V3.895h-7.633V1.161h18.3V3.895h-7.634V24.07h-3.031Zm16.334-20.8h0.8c0.49,0,.831.128,0.831,0.627a0.625,0.625,0,0,1-.75.656H223.51V3.272ZM222.745,6.84h0.765V5.128h0.622c0.866,0,.886.389,0.9,0.77a1.307,1.307,0,0,0,.153.942h0.78a1.585,1.585,0,0,1-.16-0.98,0.867,0.867,0,0,0-.586-1V4.841a0.957,0.957,0,0,0,.688-0.942,1.174,1.174,0,0,0-1.345-1.2h-1.818V6.84Zm-2.6-2.034a4.1,4.1,0,1,0,4.1-4.138A4.122,4.122,0,0,0,220.149,4.806Zm0.773,0a3.33,3.33,0,1,1,6.65,0A3.33,3.33,0,1,1,220.922,4.806Z" transform="translate(-0.281 -0.656)"/>
</svg>
