<svg 
 xmlns="http://www.w3.org/2000/svg"
 xmlns:xlink="http://www.w3.org/1999/xlink"
 width="52.5px" height="52.5px">
<path fill-rule="evenodd"  stroke="rgb(27, 70, 117)" stroke-width="3px" stroke-linecap="round" stroke-linejoin="round" fill="none"
 d="M25.500,2.250 C38.341,2.250 48.750,12.659 48.750,25.500 C48.750,38.341 38.341,48.750 25.500,48.750 C12.659,48.750 2.250,38.341 2.250,25.500 C2.250,12.659 12.659,2.250 25.500,2.250 Z"/>
<path fill-rule="evenodd"  stroke="rgb(27, 70, 117)" stroke-width="3px" stroke-linecap="round" stroke-linejoin="round" fill="none"
 d="M8.888,12.677 L45.013,36.052 "/>
<path fill-rule="evenodd"  stroke="rgb(27, 70, 117)" stroke-width="3px" stroke-linecap="round" stroke-linejoin="round" fill="none"
 d="M8.888,12.677 L45.013,36.052 "/>
</svg>